(module "100519222410EHLF" (layer F.Cu)
  (descr "10051922-2410EHLF-1")
  (tags "Connector")
  (attr smd)
  (fp_text reference J** (at 0.000 -0.638) (layer F.SilkS)
    (effects (font (size 1.27 1.27) (thickness 0.254)))
  )
  (fp_text user %R (at 0.000 -0.638) (layer F.Fab)
    (effects (font (size 1.27 1.27) (thickness 0.254)))
  )
  (fp_text value "100519222410EHLF" (at 0.000 -0.638) (layer F.SilkS) hide
    (effects (font (size 1.27 1.27) (thickness 0.254)))
  )
  (fp_line (start -7.25 1.575) (end 7.25 1.575) (layer F.Fab) (width 0.2))
  (fp_line (start 7.25 1.575) (end 7.25 -1.575) (layer F.Fab) (width 0.2))
  (fp_line (start 7.25 -1.575) (end -7.25 -1.575) (layer F.Fab) (width 0.2))
  (fp_line (start -7.25 -1.575) (end -7.25 1.575) (layer F.Fab) (width 0.2))
  (fp_line (start -6.36 -1.825) (end 6.36 -1.825) (layer F.Fab) (width 0.2))
  (fp_line (start 6.36 -1.825) (end 6.36 -1.575) (layer F.Fab) (width 0.2))
  (fp_line (start 6.36 -1.575) (end -6.36 -1.575) (layer F.Fab) (width 0.2))
  (fp_line (start -6.36 -1.575) (end -6.36 -1.825) (layer F.Fab) (width 0.2))
  (fp_line (start -7.25 -0.5) (end -7.25 -0.5) (layer F.SilkS) (width 0.1))
  (fp_line (start -7.25 -0.5) (end -7.25 -1.575) (layer F.SilkS) (width 0.1))
  (fp_line (start -7.25 -1.575) (end -7.25 -1.575) (layer F.SilkS) (width 0.1))
  (fp_line (start -7.25 -1.575) (end -7.25 -0.5) (layer F.SilkS) (width 0.1))
  (fp_line (start -7.25 -1.575) (end -6.5 -1.575) (layer F.SilkS) (width 0.1))
  (fp_line (start -6.5 -1.575) (end -6.5 -1.575) (layer F.SilkS) (width 0.1))
  (fp_line (start -6.5 -1.575) (end -7.25 -1.575) (layer F.SilkS) (width 0.1))
  (fp_line (start -7.25 -1.575) (end -7.25 -1.575) (layer F.SilkS) (width 0.1))
  (fp_line (start -6 1.575) (end 6 1.575) (layer F.SilkS) (width 0.1))
  (fp_line (start 6 1.575) (end 6 1.575) (layer F.SilkS) (width 0.1))
  (fp_line (start 6 1.575) (end -6 1.575) (layer F.SilkS) (width 0.1))
  (fp_line (start -6 1.575) (end -6 1.575) (layer F.SilkS) (width 0.1))
  (fp_line (start 7.25 -0.5) (end 7.25 -0.5) (layer F.SilkS) (width 0.1))
  (fp_line (start 7.25 -0.5) (end 7.25 -1.575) (layer F.SilkS) (width 0.1))
  (fp_line (start 7.25 -1.575) (end 7.25 -1.575) (layer F.SilkS) (width 0.1))
  (fp_line (start 7.25 -1.575) (end 7.25 -0.5) (layer F.SilkS) (width 0.1))
  (fp_line (start 7.25 -1.575) (end 6.5 -1.575) (layer F.SilkS) (width 0.1))
  (fp_line (start 6.5 -1.575) (end 6.5 -1.575) (layer F.SilkS) (width 0.1))
  (fp_line (start 6.5 -1.575) (end 7.25 -1.575) (layer F.SilkS) (width 0.1))
  (fp_line (start 7.25 -1.575) (end 7.25 -1.575) (layer F.SilkS) (width 0.1))
  (fp_line (start -8.45 -3.85) (end 8.45 -3.85) (layer F.CrtYd) (width 0.1))
  (fp_line (start 8.45 -3.85) (end 8.45 2.575) (layer F.CrtYd) (width 0.1))
  (fp_line (start 8.45 2.575) (end -8.45 2.575) (layer F.CrtYd) (width 0.1))
  (fp_line (start -8.45 2.575) (end -8.45 -3.85) (layer F.CrtYd) (width 0.1))
  (fp_line (start -5.8 -2.8) (end -5.8 -2.8) (layer F.SilkS) (width 0.2))
  (fp_line (start -5.7 -2.8) (end -5.7 -2.8) (layer F.SilkS) (width 0.2))
  (fp_line (start -5.8 -2.8) (end -5.8 -2.8) (layer F.SilkS) (width 0.2))
  (fp_arc (start -5.75 -2.8) (end -5.800 -2.8) (angle -180) (layer F.SilkS) (width 0.2))
  (fp_arc (start -5.75 -2.8) (end -5.700 -2.8) (angle -180) (layer F.SilkS) (width 0.2))
  (fp_arc (start -5.75 -2.8) (end -5.800 -2.8) (angle -180) (layer F.SilkS) (width 0.2))
  (pad 1 smd rect (at -5.750 -1.975 0) (size 0.300 0.800) (layers F.Cu F.Paste F.Mask))
  (pad 2 smd rect (at -5.250 -1.975 0) (size 0.300 0.800) (layers F.Cu F.Paste F.Mask))
  (pad 3 smd rect (at -4.750 -1.975 0) (size 0.300 0.800) (layers F.Cu F.Paste F.Mask))
  (pad 4 smd rect (at -4.250 -1.975 0) (size 0.300 0.800) (layers F.Cu F.Paste F.Mask))
  (pad 5 smd rect (at -3.750 -1.975 0) (size 0.300 0.800) (layers F.Cu F.Paste F.Mask))
  (pad 6 smd rect (at -3.250 -1.975 0) (size 0.300 0.800) (layers F.Cu F.Paste F.Mask))
  (pad 7 smd rect (at -2.750 -1.975 0) (size 0.300 0.800) (layers F.Cu F.Paste F.Mask))
  (pad 8 smd rect (at -2.250 -1.975 0) (size 0.300 0.800) (layers F.Cu F.Paste F.Mask))
  (pad 9 smd rect (at -1.750 -1.975 0) (size 0.300 0.800) (layers F.Cu F.Paste F.Mask))
  (pad 10 smd rect (at -1.250 -1.975 0) (size 0.300 0.800) (layers F.Cu F.Paste F.Mask))
  (pad 11 smd rect (at -0.750 -1.975 0) (size 0.300 0.800) (layers F.Cu F.Paste F.Mask))
  (pad 12 smd rect (at -0.250 -1.975 0) (size 0.300 0.800) (layers F.Cu F.Paste F.Mask))
  (pad 13 smd rect (at 0.250 -1.975 0) (size 0.300 0.800) (layers F.Cu F.Paste F.Mask))
  (pad 14 smd rect (at 0.750 -1.975 0) (size 0.300 0.800) (layers F.Cu F.Paste F.Mask))
  (pad 15 smd rect (at 1.250 -1.975 0) (size 0.300 0.800) (layers F.Cu F.Paste F.Mask))
  (pad 16 smd rect (at 1.750 -1.975 0) (size 0.300 0.800) (layers F.Cu F.Paste F.Mask))
  (pad 17 smd rect (at 2.250 -1.975 0) (size 0.300 0.800) (layers F.Cu F.Paste F.Mask))
  (pad 18 smd rect (at 2.750 -1.975 0) (size 0.300 0.800) (layers F.Cu F.Paste F.Mask))
  (pad 19 smd rect (at 3.250 -1.975 0) (size 0.300 0.800) (layers F.Cu F.Paste F.Mask))
  (pad 20 smd rect (at 3.750 -1.975 0) (size 0.300 0.800) (layers F.Cu F.Paste F.Mask))
  (pad 21 smd rect (at 4.250 -1.975 0) (size 0.300 0.800) (layers F.Cu F.Paste F.Mask))
  (pad 22 smd rect (at 4.750 -1.975 0) (size 0.300 0.800) (layers F.Cu F.Paste F.Mask))
  (pad 23 smd rect (at 5.250 -1.975 0) (size 0.300 0.800) (layers F.Cu F.Paste F.Mask))
  (pad 24 smd rect (at 5.750 -1.975 0) (size 0.300 0.800) (layers F.Cu F.Paste F.Mask))
  (pad MP1 smd rect (at -6.975 0.725 0) (size 0.950 1.000) (layers F.Cu F.Paste F.Mask))
  (pad MP2 smd rect (at 6.975 0.725 0) (size 0.950 1.000) (layers F.Cu F.Paste F.Mask))
)
