PCBNEW-LibModule-V1  2022-07-11 06:50:41
# encoding utf-8
Units mm
$INDEX
MEM20510019500A
$EndINDEX
$MODULE MEM20510019500A
Po 0 0 0 15 62cbba31 00000000 ~~
Li MEM20510019500A
Cd MEM2051-00-195-00-A-3
Kw Connector
Sc 0
At SMD
AR 
Op 0 0 0
T0 0.000 -0 1.27 1.27 0 0.254 N V 21 N "J**"
T1 0.000 -0 1.27 1.27 0 0.254 N I 21 N "MEM20510019500A"
DS -7 -7.837 7 -7.837 0.1 24
DS 7 -7.837 7 7.362 0.1 24
DS 7 7.362 -7 7.362 0.1 24
DS -7 7.362 -7 -7.837 0.1 24
DS -8.275 -8.899 8.275 -8.899 0.1 24
DS 8.275 -8.899 8.275 8.899 0.1 24
DS 8.275 8.899 -8.275 8.899 0.1 24
DS -8.275 8.899 -8.275 -8.899 0.1 24
DS -7 7.362 5 7.362 0.2 21
DS 7 5.263 7 -7.837 0.2 21
DS 7 -7.837 2 -7.837 0.2 21
DS -6.5 -7.837 -7 -7.837 0.2 21
DS -7 -7.837 -7 4.263 0.2 21
DS -2.5 -7.837 -0.5 -7.837 0.2 21
DS 7.6 3.661 7.6 3.661 0.2 21
DS 7.8 3.661 7.8 3.661 0.2 21
DA 7.6995 3.6605 7.600 3.661 -1800 0.2 21
DA 7.7005 3.6605 7.800 3.661 -1800 0.2 21
$PAD
Po 1.915 3.661
Sh "P1" R 0.800 1.500 0 0 0
At SMD N 00888000
Ne 0 ""
$EndPAD
$PAD
Po 0.815 3.261
Sh "P2" R 0.800 1.500 0 0 0
At SMD N 00888000
Ne 0 ""
$EndPAD
$PAD
Po -0.285 3.661
Sh "P3" R 0.800 1.500 0 0 0
At SMD N 00888000
Ne 0 ""
$EndPAD
$PAD
Po -1.385 3.861
Sh "P4" R 0.800 1.500 0 0 0
At SMD N 00888000
Ne 0 ""
$EndPAD
$PAD
Po -2.485 3.661
Sh "P5" R 0.800 1.500 0 0 0
At SMD N 00888000
Ne 0 ""
$EndPAD
$PAD
Po -3.585 3.861
Sh "P6" R 0.800 1.500 0 0 0
At SMD N 00888000
Ne 0 ""
$EndPAD
$PAD
Po -4.685 3.661
Sh "P7" R 0.800 1.500 0 0 0
At SMD N 00888000
Ne 0 ""
$EndPAD
$PAD
Po -5.785 3.661
Sh "P8" R 0.800 1.500 0 0 0
At SMD N 00888000
Ne 0 ""
$EndPAD
$PAD
Po -4.975 -7.199
Sh "MP1" R 1.300 1.400 0 0 0
At SMD N 00888000
Ne 0 ""
$EndPAD
$PAD
Po -3.585 -7.425
Sh "MP2" R 0.950 1.000 0 0 900
At SMD N 00888000
Ne 0 ""
$EndPAD
$PAD
Po 0.725 -7.199
Sh "MP3" R 1.300 1.400 0 0 0
At SMD N 00888000
Ne 0 ""
$EndPAD
$PAD
Po -6.575 5.95
Sh "MP4" R 1.400 1.900 0 0 0
At SMD N 00888000
Ne 0 ""
$EndPAD
$PAD
Po 6.575 6.95
Sh "MP5" R 1.400 1.900 0 0 0
At SMD N 00888000
Ne 0 ""
$EndPAD
$EndMODULE MEM20510019500A
$EndLIBRARY
