PCBNEW-LibModule-V1  2022-07-20 01:12:46
# encoding utf-8
Units mm
$INDEX
EVQP7J01P
$EndINDEX
$MODULE EVQP7J01P
Po 0 0 0 15 62d7487e 00000000 ~~
Li EVQP7J01P
Cd EVQP7J
Kw Switch
Sc 0
At SMD
AR 
Op 0 0 0
T0 0.000 -0 1.27 1.27 0 0.254 N V 21 N "S**"
T1 0.000 -0 1.27 1.27 0 0.254 N I 21 N "EVQP7J01P"
DS -1.45 -1.45 2.05 -1.45 0.2 24
DS 2.05 -1.45 2.05 1.45 0.2 24
DS 2.05 1.45 -1.45 1.45 0.2 24
DS -1.45 1.45 -1.45 -1.45 0.2 24
DS -3.8 -2.45 3.8 -2.45 0.1 24
DS 3.8 -2.45 3.8 2.45 0.1 24
DS 3.8 2.45 -3.8 2.45 0.1 24
DS -3.8 2.45 -3.8 -2.45 0.1 24
DS -1.45 -1.45 2.1 -1.45 0.1 21
DS -1.45 1.45 2.05 1.45 0.1 21
DS -2.7 -0.8 -2.7 -0.8 0.2 21
DS -2.7 -0.6 -2.7 -0.6 0.2 21
DA -2.7 -0.7 -2.700 -0.8 1800 0.2 21
DA -2.7 -0.7 -2.700 -0.6 1800 0.2 21
$PAD
Po -1.500 -0.725
Sh "1" R 1.050 1.400 0 0 900
At SMD N 00888000
Ne 0 ""
$EndPAD
$PAD
Po 2.100 -0.725
Sh "2" R 1.050 1.400 0 0 900
At SMD N 00888000
Ne 0 ""
$EndPAD
$PAD
Po -1.500 0.725
Sh "3" R 1.050 1.400 0 0 900
At SMD N 00888000
Ne 0 ""
$EndPAD
$PAD
Po 2.100 0.725
Sh "4" R 1.050 1.400 0 0 900
At SMD N 00888000
Ne 0 ""
$EndPAD
$EndMODULE EVQP7J01P
$EndLIBRARY
