PCBNEW-LibModule-V1  2022-07-19 23:20:23
# encoding utf-8
Units mm
$INDEX
ZX62B5PA33
$EndINDEX
$MODULE ZX62B5PA33
Po 0 0 0 15 62d72e27 00000000 ~~
Li ZX62B5PA33
Cd ZX62-B-5PA(33)-3
Kw Connector
Sc 0
At SMD
AR 
Op 0 0 0
T0 0.000 -0.55 1.27 1.27 0 0.254 N V 21 N "J**"
T1 0.000 -0.55 1.27 1.27 0 0.254 N I 21 N "ZX62B5PA33"
DS -4.05 -2.5 4.05 -2.5 0.2 24
DS 4.05 -2.5 4.05 2.5 0.2 24
DS 4.05 2.5 -4.05 2.5 0.2 24
DS -4.05 2.5 -4.05 -2.5 0.2 24
DS -5.9 -4.6 5.9 -4.6 0.1 24
DS 5.9 -4.6 5.9 3.5 0.1 24
DS 5.9 3.5 -5.9 3.5 0.1 24
DS -5.9 3.5 -5.9 -4.6 0.1 24
DS -1.3 -3.5 -1.3 -3.5 0.1 21
DS -1.3 -3.6 -1.3 -3.6 0.1 21
DS -4 2.5 4.05 2.5 0.1 21
DA -1.3 -3.55 -1.300 -3.5 -1800 0.1 21
DA -1.3 -3.55 -1.300 -3.6 -1800 0.1 21
$PAD
Po -1.300 -2.325
Sh "1" R 0.400 1.350 0 0 0
At SMD N 00888000
Ne 0 ""
$EndPAD
$PAD
Po -0.650 -2.325
Sh "2" R 0.400 1.350 0 0 0
At SMD N 00888000
Ne 0 ""
$EndPAD
$PAD
Po 0.000 -2.325
Sh "3" R 0.400 1.350 0 0 0
At SMD N 00888000
Ne 0 ""
$EndPAD
$PAD
Po 0.650 -2.325
Sh "4" R 0.400 1.350 0 0 0
At SMD N 00888000
Ne 0 ""
$EndPAD
$PAD
Po 1.300 -2.325
Sh "5" R 0.400 1.350 0 0 0
At SMD N 00888000
Ne 0 ""
$EndPAD
$PAD
Po -4.000 0.35
Sh "MP1" R 1.800 1.900 0 0 0
At SMD N 00888000
Ne 0 ""
$EndPAD
$PAD
Po 4.000 0.35
Sh "MP2" R 1.800 1.900 0 0 0
At SMD N 00888000
Ne 0 ""
$EndPAD
$PAD
Po -3.100 -2.2
Sh "MP3" R 1.600 2.100 0 0 900
At SMD N 00888000
Ne 0 ""
$EndPAD
$PAD
Po 3.100 -2.2
Sh "MP4" R 1.600 2.100 0 0 900
At SMD N 00888000
Ne 0 ""
$EndPAD
$PAD
Po -1.200 0.35
Sh "MP5" R 1.900 1.900 0 0 0
At SMD N 00888000
Ne 0 ""
$EndPAD
$PAD
Po 1.200 0.35
Sh "MP6" R 1.900 1.900 0 0 0
At SMD N 00888000
Ne 0 ""
$EndPAD
$EndMODULE ZX62B5PA33
$EndLIBRARY
