(footprint "ZX62B5PA33" (version 20211014) (generator pcbnew)
  (layer "F.Cu")
  (tedit 0)
  (descr "ZX62-B-5PA(33)-3")
  (tags "Connector")
  (attr smd)
  (fp_text reference "J**" (at 0 -0.55) (layer "F.SilkS")
    (effects (font (size 1.27 1.27) (thickness 0.254)))
    (tstamp cf71eee0-2e28-4b94-814b-a13edfa90e7f)
  )
  (fp_text value "ZX62B5PA33" (at 0 -0.55) (layer "F.SilkS") hide
    (effects (font (size 1.27 1.27) (thickness 0.254)))
    (tstamp 7d47a722-079a-421d-87ec-4a7fa8584729)
  )
  (fp_text user "${REFERENCE}" (at 0 -0.55) (layer "F.Fab")
    (effects (font (size 1.27 1.27) (thickness 0.254)))
    (tstamp b9b0706d-0852-4d15-a695-851b3503567f)
  )
  (fp_line (start -1.3 -3.6) (end -1.3 -3.6) (layer "F.SilkS") (width 0.1) (tstamp 512f2530-2b2d-4572-b0cf-1431b28df42f))
  (fp_line (start -1.3 -3.5) (end -1.3 -3.5) (layer "F.SilkS") (width 0.1) (tstamp 564c02ce-0243-4b0f-8a4f-35f698fe0ea0))
  (fp_line (start -4 2.5) (end 4.05 2.5) (layer "F.SilkS") (width 0.1) (tstamp ad94ec4a-bbbd-4e87-bbe5-d698be139da6))
  (fp_arc (start -1.3 -3.5) (mid -1.35 -3.55) (end -1.3 -3.6) (layer "F.SilkS") (width 0.1) (tstamp 53dc5759-b81f-4286-aad6-1e8ce110973f))
  (fp_arc (start -1.3 -3.6) (mid -1.25 -3.55) (end -1.3 -3.5) (layer "F.SilkS") (width 0.1) (tstamp bb609947-4ac7-4795-bd66-365770bb4089))
  (fp_line (start 5.9 -4.6) (end 5.9 3.5) (layer "F.CrtYd") (width 0.1) (tstamp 121b9359-3672-41d4-b696-960195664bf5))
  (fp_line (start 5.9 3.5) (end -5.9 3.5) (layer "F.CrtYd") (width 0.1) (tstamp b8a050ff-3888-4c73-b512-77950a0b5997))
  (fp_line (start -5.9 3.5) (end -5.9 -4.6) (layer "F.CrtYd") (width 0.1) (tstamp c0c44956-0e19-4eb1-aab2-54ac1b576b7f))
  (fp_line (start -5.9 -4.6) (end 5.9 -4.6) (layer "F.CrtYd") (width 0.1) (tstamp fba23bde-c8df-4d76-8198-4b4641108a27))
  (fp_line (start -4.05 2.5) (end -4.05 -2.5) (layer "F.Fab") (width 0.2) (tstamp 686b4fa7-1e60-4da2-9113-373ad1933a08))
  (fp_line (start -4.05 -2.5) (end 4.05 -2.5) (layer "F.Fab") (width 0.2) (tstamp 75aebbce-d787-4a26-82b3-883db6f9168a))
  (fp_line (start 4.05 -2.5) (end 4.05 2.5) (layer "F.Fab") (width 0.2) (tstamp a3c0e25e-fedf-499f-94de-ccbc14da53c5))
  (fp_line (start 4.05 2.5) (end -4.05 2.5) (layer "F.Fab") (width 0.2) (tstamp ed7d24b9-a7cf-4f1d-ad05-6a68c57a8c5d))
  (pad "1" smd rect (at -1.3 -2.325) (size 0.4 1.35) (layers "F.Cu" "F.Paste" "F.Mask") (tstamp 1d4cd46c-9329-41ea-9967-960d3c12e1e5))
  (pad "2" smd rect (at -0.65 -2.325) (size 0.4 1.35) (layers "F.Cu" "F.Paste" "F.Mask") (tstamp 0b5edd0a-1f10-4b8c-ac0d-8361e77acf80))
  (pad "3" smd rect (at 0 -2.325) (size 0.4 1.35) (layers "F.Cu" "F.Paste" "F.Mask") (tstamp aae32d4b-7275-4dfa-9b12-6bf865a0488d))
  (pad "4" smd rect (at 0.65 -2.325) (size 0.4 1.35) (layers "F.Cu" "F.Paste" "F.Mask") (tstamp c85fb743-caf9-44bd-85a0-e8da0020e214))
  (pad "5" smd rect (at 1.3 -2.325) (size 0.4 1.35) (layers "F.Cu" "F.Paste" "F.Mask") (tstamp 6cca3c24-e9da-4dd8-9da2-00c4be5dbce9))
  (pad "MP1" smd rect (at -4 0.35) (size 1.8 1.9) (layers "F.Cu" "F.Paste" "F.Mask") (tstamp 19dfd960-48c6-46f1-a02b-bff531c861e7))
  (pad "MP2" smd rect (at 4 0.35) (size 1.8 1.9) (layers "F.Cu" "F.Paste" "F.Mask") (tstamp 913a6839-6d49-4277-8cd8-faad3b0f0ebf))
  (pad "MP3" smd rect (at -3.1 -2.2 90) (size 1.6 2.1) (layers "F.Cu" "F.Paste" "F.Mask") (tstamp da563f6b-e3af-45b2-b3aa-3b17b4f93109))
  (pad "MP4" smd rect (at 3.1 -2.2 90) (size 1.6 2.1) (layers "F.Cu" "F.Paste" "F.Mask") (tstamp ee2d0b4b-3535-4a0d-afbc-bc8b141caa3a))
  (pad "MP5" smd rect (at -1.2 0.35) (size 1.9 1.9) (layers "F.Cu" "F.Paste" "F.Mask") (tstamp cb195a1b-5a6b-43f5-b5ca-ae6369fcc4ea))
  (pad "MP6" smd rect (at 1.2 0.35) (size 1.9 1.9) (layers "F.Cu" "F.Paste" "F.Mask") (tstamp 0ba6b09e-229c-4e2d-9abf-822c4729a4cd))
  (model "${KIPRJMOD}/components/ZX62-B-5PA_33 micro usb/ZX62-B-5PA_33_.stp"
    (offset (xyz 3.41 2.5 0.32))
    (scale (xyz 1 1 1))
    (rotate (xyz -90 0 90))
  )
)
