%TF.GenerationSoftware,KiCad,Pcbnew,6.0.7-f9a2dced07~116~ubuntu20.04.1*%
%TF.CreationDate,2022-08-17T10:03:33+12:00*%
%TF.ProjectId,trap-watch,74726170-2d77-4617-9463-682e6b696361,rev?*%
%TF.SameCoordinates,Original*%
%TF.FileFunction,Soldermask,Bot*%
%TF.FilePolarity,Negative*%
%FSLAX46Y46*%
G04 Gerber Fmt 4.6, Leading zero omitted, Abs format (unit mm)*
G04 Created by KiCad (PCBNEW 6.0.7-f9a2dced07~116~ubuntu20.04.1) date 2022-08-17 10:03:33*
%MOMM*%
%LPD*%
G01*
G04 APERTURE LIST*
G04 Aperture macros list*
%AMRoundRect*
0 Rectangle with rounded corners*
0 $1 Rounding radius*
0 $2 $3 $4 $5 $6 $7 $8 $9 X,Y pos of 4 corners*
0 Add a 4 corners polygon primitive as box body*
4,1,4,$2,$3,$4,$5,$6,$7,$8,$9,$2,$3,0*
0 Add four circle primitives for the rounded corners*
1,1,$1+$1,$2,$3*
1,1,$1+$1,$4,$5*
1,1,$1+$1,$6,$7*
1,1,$1+$1,$8,$9*
0 Add four rect primitives between the rounded corners*
20,1,$1+$1,$2,$3,$4,$5,0*
20,1,$1+$1,$4,$5,$6,$7,0*
20,1,$1+$1,$6,$7,$8,$9,0*
20,1,$1+$1,$8,$9,$2,$3,0*%
G04 Aperture macros list end*
%ADD10R,1.700000X1.700000*%
%ADD11O,1.700000X1.700000*%
%ADD12RoundRect,0.237500X0.237500X-0.300000X0.237500X0.300000X-0.237500X0.300000X-0.237500X-0.300000X0*%
%ADD13R,0.300000X1.300000*%
%ADD14R,1.800000X2.200000*%
%ADD15RoundRect,0.237500X0.237500X-0.250000X0.237500X0.250000X-0.237500X0.250000X-0.237500X-0.250000X0*%
%ADD16RoundRect,0.237500X-0.250000X-0.237500X0.250000X-0.237500X0.250000X0.237500X-0.250000X0.237500X0*%
%ADD17RoundRect,0.237500X0.250000X0.237500X-0.250000X0.237500X-0.250000X-0.237500X0.250000X-0.237500X0*%
%ADD18RoundRect,0.237500X-0.237500X0.250000X-0.237500X-0.250000X0.237500X-0.250000X0.237500X0.250000X0*%
%ADD19R,1.300000X1.400000*%
%ADD20R,1.000000X0.950000*%
%ADD21R,1.400000X1.900000*%
%ADD22R,0.800000X1.500000*%
%ADD23C,1.400000*%
%ADD24O,1.400000X1.400000*%
%ADD25R,1.500000X1.500000*%
%ADD26R,0.900000X0.900000*%
%ADD27RoundRect,0.237500X-0.237500X0.300000X-0.237500X-0.300000X0.237500X-0.300000X0.237500X0.300000X0*%
%ADD28RoundRect,0.150000X0.587500X0.150000X-0.587500X0.150000X-0.587500X-0.150000X0.587500X-0.150000X0*%
%ADD29R,0.900000X0.600000*%
G04 APERTURE END LIST*
D10*
%TO.C,J5*%
X162204400Y-87122000D03*
D11*
X162204400Y-89662000D03*
%TD*%
D10*
%TO.C,J4*%
X162204400Y-82804000D03*
D11*
X162204400Y-80264000D03*
%TD*%
D10*
%TO.C,JPIR1*%
X191899900Y-73211100D03*
D11*
X191899900Y-75751100D03*
X191899900Y-78291100D03*
%TD*%
D10*
%TO.C,JIO1*%
X191925300Y-87755300D03*
D11*
X191925300Y-90295300D03*
X191925300Y-92835300D03*
X191925300Y-95375300D03*
X191925300Y-97915300D03*
%TD*%
D10*
%TO.C,JI2C1*%
X191899900Y-102660100D03*
D11*
X191899900Y-105200100D03*
X191899900Y-107740100D03*
X191899900Y-110280100D03*
%TD*%
D10*
%TO.C,JGPS1*%
X162204400Y-94742000D03*
D11*
X162204400Y-97282000D03*
X162204400Y-99822000D03*
X162204400Y-102362000D03*
X162204400Y-104902000D03*
X162204400Y-107442000D03*
X162204400Y-109982000D03*
%TD*%
D12*
%TO.C,C4*%
X186842400Y-105511600D03*
X186842400Y-103786600D03*
%TD*%
D13*
%TO.C,CAMERA1*%
X183300000Y-109200000D03*
X182800000Y-109200000D03*
X182300000Y-109200000D03*
X181800000Y-109200000D03*
X181300000Y-109200000D03*
X180800000Y-109200000D03*
X180300000Y-109200000D03*
X179800000Y-109200000D03*
X179300000Y-109200000D03*
X178800000Y-109200000D03*
X178300000Y-109200000D03*
X177800000Y-109200000D03*
X177300000Y-109200000D03*
X176800000Y-109200000D03*
X176300000Y-109200000D03*
X175800000Y-109200000D03*
X175300000Y-109200000D03*
X174800000Y-109200000D03*
X174300000Y-109200000D03*
X173800000Y-109200000D03*
X173300000Y-109200000D03*
X172800000Y-109200000D03*
X172300000Y-109200000D03*
X171800000Y-109200000D03*
D14*
X169900000Y-105950000D03*
X185200000Y-105950000D03*
%TD*%
D15*
%TO.C,R11*%
X181457600Y-112623600D03*
X181457600Y-110798600D03*
%TD*%
D16*
%TO.C,R31*%
X167286300Y-89255600D03*
X169111300Y-89255600D03*
%TD*%
D17*
%TO.C,R24*%
X190137500Y-95375000D03*
X188312500Y-95375000D03*
%TD*%
D18*
%TO.C,R9*%
X175515200Y-98605000D03*
X175515200Y-100430000D03*
%TD*%
D17*
%TO.C,R19*%
X189350000Y-100920000D03*
X187525000Y-100920000D03*
%TD*%
D18*
%TO.C,R10*%
X180220000Y-98595000D03*
X180220000Y-100420000D03*
%TD*%
D15*
%TO.C,R21*%
X191087400Y-116586600D03*
X191087400Y-114761600D03*
%TD*%
D19*
%TO.C,SDCARD1*%
X173000000Y-82920000D03*
D20*
X174390000Y-83146000D03*
D19*
X178700000Y-82920000D03*
D21*
X171400000Y-69771000D03*
X184550000Y-68771000D03*
D22*
X179890000Y-72060000D03*
X178790000Y-72460000D03*
X177690000Y-72060000D03*
X176590000Y-71860000D03*
X175490000Y-72060000D03*
X174390000Y-71860000D03*
X173290000Y-72060000D03*
X172190000Y-72060000D03*
%TD*%
D18*
%TO.C,R7*%
X177090000Y-98605000D03*
X177090000Y-100430000D03*
%TD*%
D23*
%TO.C,R32*%
X165201600Y-94742000D03*
D24*
X165201600Y-87122000D03*
%TD*%
D17*
%TO.C,R23*%
X189975000Y-97925000D03*
X188150000Y-97925000D03*
%TD*%
D25*
%TO.C,D1*%
X189340000Y-119536800D03*
X192840000Y-119536800D03*
D26*
X191090000Y-118886800D03*
%TD*%
D27*
%TO.C,C2*%
X174548800Y-110897500D03*
X174548800Y-112622500D03*
%TD*%
D28*
%TO.C,Q3*%
X169113200Y-90810000D03*
X169113200Y-92710000D03*
X167238200Y-91760000D03*
%TD*%
D12*
%TO.C,C5*%
X170200000Y-111330000D03*
X170200000Y-109605000D03*
%TD*%
D15*
%TO.C,R12*%
X179882800Y-112623600D03*
X179882800Y-110798600D03*
%TD*%
D18*
%TO.C,R14*%
X186660000Y-109115000D03*
X186660000Y-110940000D03*
%TD*%
D17*
%TO.C,R25*%
X187645000Y-91940000D03*
X185820000Y-91940000D03*
%TD*%
D29*
%TO.C,IC2*%
X170010000Y-97970000D03*
X170010000Y-99870000D03*
X167210000Y-98920000D03*
%TD*%
D18*
%TO.C,R8*%
X178680000Y-98600000D03*
X178680000Y-100425000D03*
%TD*%
D29*
%TO.C,IC1*%
X168654800Y-109585200D03*
X168654800Y-111485200D03*
X165854800Y-110535200D03*
%TD*%
D12*
%TO.C,C6*%
X173940000Y-99740000D03*
X173940000Y-98015000D03*
%TD*%
D27*
%TO.C,C3*%
X177698400Y-110896400D03*
X177698400Y-112621400D03*
%TD*%
D15*
%TO.C,R22*%
X189334800Y-116590400D03*
X189334800Y-114765400D03*
%TD*%
D17*
%TO.C,R18*%
X189345000Y-99420000D03*
X187520000Y-99420000D03*
%TD*%
D15*
%TO.C,R6*%
X185117100Y-112621700D03*
X185117100Y-110796700D03*
%TD*%
M02*
