%TF.GenerationSoftware,KiCad,Pcbnew,6.0.7-f9a2dced07~116~ubuntu20.04.1*%
%TF.CreationDate,2022-08-17T10:03:33+12:00*%
%TF.ProjectId,trap-watch,74726170-2d77-4617-9463-682e6b696361,rev?*%
%TF.SameCoordinates,Original*%
%TF.FileFunction,Profile,NP*%
%FSLAX46Y46*%
G04 Gerber Fmt 4.6, Leading zero omitted, Abs format (unit mm)*
G04 Created by KiCad (PCBNEW 6.0.7-f9a2dced07~116~ubuntu20.04.1) date 2022-08-17 10:03:33*
%MOMM*%
%LPD*%
G01*
G04 APERTURE LIST*
%TA.AperFunction,Profile*%
%ADD10C,0.200000*%
%TD*%
G04 APERTURE END LIST*
D10*
X160375600Y-66751200D02*
X193730000Y-66751200D01*
X193730000Y-66751200D02*
X193730000Y-120420000D01*
X193730000Y-120420000D02*
X160375600Y-120420000D01*
X160375600Y-120420000D02*
X160375600Y-66751200D01*
M02*
