#VRML V2.0 utf8


Group {
  children 
    DEF o0 Group {
      children [ 
        DEF o1 Group {
          children 
            DEF o2 Transform {
              translation -0 -0 -0
              rotation 0 0 1  0
              scale 1 1 1
              scaleOrientation 0 0 1  0
              center 0 0 0
              children 
                DEF o3 Group {
                  children [ 
                    DEF o4 Group {
                      children 
                        DEF o5 Transform {
                          translation 0 0 0
                          rotation 0 0 1  0
                          scale 1 1 1
                          scaleOrientation 0 0 1  0
                          center 0 0 0

                        }

                    },
                      
                    DEF o6 Group {
                      children 
                        DEF o7 Transform {
                          translation 0 0 0
                          rotation 0 0 1  0
                          scale 1 1 1
                          scaleOrientation 0 0 1  0
                          center 0 0 0
                          children 
                            DEF o8 Group {
                              children 
                                DEF o9 Shape {
                                  appearance 
                                  Appearance {
                                    material 
                                    Material {
                                      diffuseColor 1 1 1
                                      ambientIntensity 0.1
                                      specularColor 0.059999999 0.059999999 0.059999999
                                      shininess 0.0077999998
                                      transparency 0.60000002

                                    }

                                  }
                                  geometry 
                                  IndexedFaceSet {
                                    coord 
                                    Coordinate {
                                      point [ -1 0 0,
                                          -1 0 1,
                                          1 0 1,
                                          1 0 0,
                                          1 0 0,
                                          1 0 1,
                                          0.98768836 0.15643446 1,
                                          0.95105654 0.309017 1,
                                          0.89100653 0.45399049 1,
                                          0.809017 0.58778524 1,
                                          0.70710677 0.70710677 1,
                                          0.58778524 0.809017 1,
                                          0.45399049 0.89100653 1,
                                          0.309017 0.95105654 1,
                                          0.15643446 0.98768836 1,
                                          6.1232343e-017 1 1,
                                          -0.15643446 0.98768836 1,
                                          -0.309017 0.95105654 1,
                                          -0.45399049 0.89100653 1,
                                          -0.58778524 0.809017 1,
                                          -0.70710677 0.70710677 1,
                                          -0.809017 0.58778524 1,
                                          -0.89100653 0.45399049 1,
                                          -0.95105654 0.309017 1,
                                          -0.98768836 0.15643446 1,
                                          -1 0 1,
                                          -1 0 0,
                                          0.98768836 0.15643446 0,
                                          0.95105654 0.309017 0,
                                          0.89100653 0.45399049 0,
                                          0.809017 0.58778524 0,
                                          0.70710677 0.70710677 0,
                                          0.58778524 0.809017 0,
                                          0.45399049 0.89100653 0,
                                          0.309017 0.95105654 0,
                                          0.15643446 0.98768836 0,
                                          6.1232343e-017 1 0,
                                          -0.15643446 0.98768836 0,
                                          -0.309017 0.95105654 0,
                                          -0.45399049 0.89100653 0,
                                          -0.58778524 0.809017 0,
                                          -0.70710677 0.70710677 0,
                                          -0.809017 0.58778524 0,
                                          -0.89100653 0.45399049 0,
                                          -0.95105654 0.309017 0,
                                          -0.98768836 0.15643446 0,
                                          -1 0 0,
                                          1 0 0,
                                          0.98768836 0.15643446 0,
                                          0.95105654 0.309017 0,
                                          0.89100653 0.45399049 0,
                                          0.809017 0.58778524 0,
                                          0.70710677 0.70710677 0,
                                          0.58778524 0.809017 0,
                                          0.45399049 0.89100653 0,
                                          0.309017 0.95105654 0,
                                          0.15643446 0.98768836 0,
                                          6.1232343e-017 1 0,
                                          -0.15643446 0.98768836 0,
                                          -0.309017 0.95105654 0,
                                          -0.45399049 0.89100653 0,
                                          -0.58778524 0.809017 0,
                                          -0.70710677 0.70710677 0,
                                          -0.809017 0.58778524 0,
                                          -0.89100653 0.45399049 0,
                                          -0.95105654 0.309017 0,
                                          -0.98768836 0.15643446 0,
                                          -1 0 1,
                                          1 0 1,
                                          0.98768836 0.15643446 1,
                                          0.95105654 0.309017 1,
                                          0.89100653 0.45399049 1,
                                          0.809017 0.58778524 1,
                                          0.70710677 0.70710677 1,
                                          0.58778524 0.809017 1,
                                          0.45399049 0.89100653 1,
                                          0.309017 0.95105654 1,
                                          0.15643446 0.98768836 1,
                                          6.1232343e-017 1 1,
                                          -0.15643446 0.98768836 1,
                                          -0.309017 0.95105654 1,
                                          -0.45399049 0.89100653 1,
                                          -0.58778524 0.809017 1,
                                          -0.70710677 0.70710677 1,
                                          -0.809017 0.58778524 1,
                                          -0.89100653 0.45399049 1,
                                          -0.95105654 0.309017 1,
                                          -0.98768836 0.15643446 1,
                                          -1 0 0,
                                          -1 0 1,
                                          1 0 0,
                                          1 0 1 ]

                                    }
                                    coordIndex [ 0, 3, 1, -1, 1, 3, 2, -1,
                                        4, 27, 5, -1, 5, 27, 6, -1,
                                        6, 28, 7, -1, 27, 28, 6, -1,
                                        7, 29, 8, -1, 28, 29, 7, -1,
                                        8, 30, 9, -1, 9, 30, 10, -1,
                                        29, 30, 8, -1, 30, 31, 10, -1,
                                        10, 32, 11, -1, 31, 32, 10, -1,
                                        11, 33, 12, -1, 12, 33, 13, -1,
                                        32, 33, 11, -1, 33, 34, 13, -1,
                                        13, 35, 14, -1, 34, 35, 13, -1,
                                        14, 36, 15, -1, 35, 36, 14, -1,
                                        15, 37, 16, -1, 16, 37, 17, -1,
                                        36, 37, 15, -1, 37, 38, 17, -1,
                                        17, 39, 18, -1, 38, 39, 17, -1,
                                        39, 40, 18, -1, 18, 40, 19, -1,
                                        40, 41, 19, -1, 19, 41, 20, -1,
                                        41, 42, 20, -1, 20, 42, 21, -1,
                                        42, 43, 21, -1, 21, 43, 22, -1,
                                        22, 44, 23, -1, 43, 44, 22, -1,
                                        23, 45, 24, -1, 44, 45, 23, -1,
                                        24, 26, 25, -1, 45, 26, 24, -1,
                                        66, 65, 46, -1, 64, 63, 65, -1,
                                        65, 63, 46, -1, 62, 61, 63, -1,
                                        63, 61, 46, -1, 46, 52, 47, -1,
                                        47, 52, 48, -1, 48, 52, 49, -1,
                                        49, 52, 50, -1, 50, 52, 51, -1,
                                        53, 52, 54, -1, 54, 52, 55, -1,
                                        55, 52, 56, -1, 56, 52, 57, -1,
                                        57, 52, 58, -1, 58, 52, 59, -1,
                                        59, 52, 60, -1, 60, 52, 61, -1,
                                        61, 52, 46, -1, 86, 87, 67, -1,
                                        84, 85, 86, -1, 84, 86, 67, -1,
                                        82, 83, 84, -1, 82, 84, 67, -1,
                                        73, 67, 68, -1, 73, 68, 69, -1,
                                        73, 69, 70, -1, 73, 70, 71, -1,
                                        73, 71, 72, -1, 73, 74, 75, -1,
                                        73, 75, 76, -1, 73, 76, 77, -1,
                                        73, 77, 78, -1, 73, 78, 79, -1,
                                        73, 79, 80, -1, 73, 80, 81, -1,
                                        73, 81, 82, -1, 73, 82, 67, -1 ]
                                    ccw TRUE
                                    solid FALSE
                                    convex TRUE
                                    creaseAngle 0

                                  }

                                }

                            }

                        }

                    },
                      
                    DEF o10 Group {
                      children 
                        DEF o11 Transform {
                          translation 0 0 0
                          rotation 0 0 1  0
                          scale 1 1 1
                          scaleOrientation 0 0 1  0
                          center 0 0 0
                          children 
                            DEF o12 Group {

                            }

                        }

                    },
                      
                    DEF o13 Group {
                      children 
                        DEF o14 Transform {
                          translation 0 0 0
                          rotation 1 0 0  1.5707964
                          scale 1 1 1
                          scaleOrientation 0 0 1  0
                          center 0 0 0
                          children 
                            DEF o15 Group {

                            }

                        }

                    } ]

                }

            }

        },
          
        DEF o16 Group {
          children 
            DEF o17 Transform {
              translation 0 0 0
              rotation 0 0 1  0
              scale 1 1 1
              scaleOrientation 0 0 1  0
              center 0 0 0
              children 
                DEF o18 Group {
                  children 
                    DEF o19 Shape {
                      appearance 
                      Appearance {
                        material 
                        Material {
                          diffuseColor 1 1 1
                          ambientIntensity 0.10196079
                          specularColor 0.05882353 0.05882353 0.05882353
                          shininess 0.0077999998

                        }

                      }
                      geometry 
                      IndexedFaceSet {
                        coord 
                        Coordinate {
                          point [ 1 0 0,
                              1 -1 0,
                              -1 -1 0,
                              -1 0 0,
                              -1.47 0 2.5221001e-011,
                              -1.47 -1 2.5221001e-011,
                              -1 -1 0,
                              -1 0 0,
                              -1.47 0 2.5221001e-011,
                              -1.47 -1 2.5221001e-011,
                              -1.4775217 -1 0.066756278,
                              -1.4997094 -1 0.13016511,
                              -1.5354506 -1 0.18704695,
                              -1.5829531 -1 0.23454945,
                              -1.6398349 -1 0.27029067,
                              -1.7032437 -1 0.29247838,
                              -1.77 -1 0.30000001,
                              -1.77 0 0.30000001,
                              -1.4775217 0 0.066756278,
                              -1.4997094 0 0.13016511,
                              -1.5354506 0 0.18704695,
                              -1.5829531 0 0.23454945,
                              -1.6398349 0 0.27029067,
                              -1.7032437 0 0.29247838,
                              -1.77 0 0.30000001,
                              -1.77 -1 0.30000001,
                              -1.77 -1 0.69999999,
                              -1.77 0 0.69999999,
                              -1.77 0 0.69999999,
                              -1.77 -1 0.69999999,
                              -1.7032437 -1 0.70752162,
                              -1.6398349 -1 0.72970933,
                              -1.5829531 -1 0.76545054,
                              -1.5354506 -1 0.81295305,
                              -1.4997094 -1 0.8698349,
                              -1.4775217 -1 0.93324369,
                              -1.47 -1 1,
                              -1.47 0 1,
                              -1.7032437 0 0.70752162,
                              -1.6398349 0 0.72970933,
                              -1.5829531 0 0.76545054,
                              -1.5354506 0 0.81295305,
                              -1.4997094 0 0.8698349,
                              -1.4775217 0 0.93324369,
                              -1.47 0 1,
                              -1.47 -1 1,
                              -1 -1 1,
                              -1 0 1,
                              -1 0 1,
                              -1 -1 1,
                              1 -1 1,
                              1 0 1,
                              1 0 1,
                              1 -1 1,
                              1.47 -1 1,
                              1.47 0 1,
                              1.47 0 1,
                              1.47 -1 1,
                              1.4775217 -1 0.93324369,
                              1.4997094 -1 0.8698349,
                              1.5354506 -1 0.81295305,
                              1.5829531 -1 0.76545054,
                              1.6398349 -1 0.72970933,
                              1.7032437 -1 0.70752162,
                              1.77 -1 0.69999999,
                              1.77 0 0.69999999,
                              1.4775217 0 0.93324369,
                              1.4997094 0 0.8698349,
                              1.5354506 0 0.81295305,
                              1.5829531 0 0.76545054,
                              1.6398349 0 0.72970933,
                              1.7032437 0 0.70752162,
                              1.77 0 0.30000001,
                              1.77 -1 0.30000001,
                              1.77 -1 0.69999999,
                              1.77 0 0.69999999,
                              1.77 0 0.30000001,
                              1.77 -1 0.30000001,
                              1.7032437 -1 0.29247838,
                              1.6398349 -1 0.27029067,
                              1.5829531 -1 0.23454945,
                              1.5354506 -1 0.18704695,
                              1.4997094 -1 0.13016511,
                              1.4775217 -1 0.066756278,
                              1.47 -1 -4.5190002e-012,
                              1.47 0 -4.5190002e-012,
                              1.7032437 0 0.29247838,
                              1.6398349 0 0.27029067,
                              1.5829531 0 0.23454945,
                              1.5354506 0 0.18704695,
                              1.4997094 0 0.13016511,
                              1.4775217 0 0.066756278,
                              1 0 0,
                              1 -1 0,
                              1.47 -1 -4.5190002e-012,
                              1.47 0 -4.5190002e-012,
                              1 0 0,
                              -1 0 0,
                              -1.47 0 2.5221001e-011,
                              -1.4775217 0 0.066756278,
                              -1.4997094 0 0.13016511,
                              -1.5354506 0 0.18704695,
                              -1.5829531 0 0.23454945,
                              -1.6398349 0 0.27029067,
                              -1.7032437 0 0.29247838,
                              -1.77 0 0.30000001,
                              -1.77 0 0.69999999,
                              -1.7032437 0 0.70752162,
                              -1.6398349 0 0.72970933,
                              -1.5829531 0 0.76545054,
                              -1.5354506 0 0.81295305,
                              -1.4997094 0 0.8698349,
                              -1.4775217 0 0.93324369,
                              -1.47 0 1,
                              -1 0 1,
                              1 0 1,
                              1.47 0 1,
                              1.4775217 0 0.93324369,
                              1.4997094 0 0.8698349,
                              1.5354506 0 0.81295305,
                              1.5829531 0 0.76545054,
                              1.6398349 0 0.72970933,
                              1.7032437 0 0.70752162,
                              1.77 0 0.69999999,
                              1.77 0 0.30000001,
                              1.7032437 0 0.29247838,
                              1.6398349 0 0.27029067,
                              1.5829531 0 0.23454945,
                              1.5354506 0 0.18704695,
                              1.4997094 0 0.13016511,
                              1.4775217 0 0.066756278,
                              1.47 0 -4.5190002e-012,
                              1 -1 0,
                              -1 -1 0,
                              -1.47 -1 2.5221001e-011,
                              -1.4775217 -1 0.066756278,
                              -1.4997094 -1 0.13016511,
                              -1.5354506 -1 0.18704695,
                              -1.5829531 -1 0.23454945,
                              -1.6398349 -1 0.27029067,
                              -1.7032437 -1 0.29247838,
                              -1.77 -1 0.30000001,
                              -1.77 -1 0.69999999,
                              -1.7032437 -1 0.70752162,
                              -1.6398349 -1 0.72970933,
                              -1.5829531 -1 0.76545054,
                              -1.5354506 -1 0.81295305,
                              -1.4997094 -1 0.8698349,
                              -1.4775217 -1 0.93324369,
                              -1.47 -1 1,
                              -1 -1 1,
                              1 -1 1,
                              1.47 -1 1,
                              1.4775217 -1 0.93324369,
                              1.4997094 -1 0.8698349,
                              1.5354506 -1 0.81295305,
                              1.5829531 -1 0.76545054,
                              1.6398349 -1 0.72970933,
                              1.7032437 -1 0.70752162,
                              1.77 -1 0.69999999,
                              1.77 -1 0.30000001,
                              1.7032437 -1 0.29247838,
                              1.6398349 -1 0.27029067,
                              1.5829531 -1 0.23454945,
                              1.5354506 -1 0.18704695,
                              1.4997094 -1 0.13016511,
                              1.4775217 -1 0.066756278,
                              1.47 -1 -4.5190002e-012,
                              1 0 0,
                              1 -1 0,
                              -1 -0 -0,
                              -1 -1 0,
                              -1.47 0 2.5221001e-011,
                              -1.47 -1 2.5221001e-011,
                              -1.77 0 0.30000001,
                              -1.77 -1 0.30000001,
                              -1.77 0 0.69999999,
                              -1.77 -1 0.69999999,
                              -1.47 0 1,
                              -1.47 -1 1,
                              -1 0 1,
                              -1 -1 1,
                              1 0 1,
                              1 -1 1,
                              1.47 0 1,
                              1.47 -1 1,
                              1.77 0 0.69999999,
                              1.77 -1 0.69999999,
                              1.77 0 0.30000001,
                              1.77 -1 0.30000001,
                              1.47 -0 -4.5190002e-012,
                              1.47 -1 -4.5190002e-012 ]

                        }
                        coordIndex [ 3, 0, 1, -1, 3, 1, 2, -1,
                            4, 7, 5, -1, 5, 7, 6, -1,
                            18, 8, 9, -1, 18, 9, 10, -1,
                            19, 10, 11, -1, 19, 18, 10, -1,
                            20, 11, 12, -1, 20, 19, 11, -1,
                            21, 12, 13, -1, 21, 20, 12, -1,
                            22, 13, 14, -1, 22, 21, 13, -1,
                            23, 14, 15, -1, 23, 15, 16, -1,
                            23, 22, 14, -1, 17, 23, 16, -1,
                            27, 24, 25, -1, 27, 25, 26, -1,
                            38, 28, 29, -1, 38, 29, 30, -1,
                            39, 30, 31, -1, 39, 38, 30, -1,
                            40, 31, 32, -1, 40, 39, 31, -1,
                            41, 32, 33, -1, 41, 40, 32, -1,
                            42, 33, 34, -1, 42, 41, 33, -1,
                            43, 34, 35, -1, 43, 42, 34, -1,
                            37, 35, 36, -1, 37, 43, 35, -1,
                            47, 44, 45, -1, 47, 45, 46, -1,
                            51, 48, 49, -1, 51, 49, 50, -1,
                            55, 52, 53, -1, 55, 53, 54, -1,
                            66, 56, 57, -1, 66, 57, 58, -1,
                            67, 58, 59, -1, 67, 66, 58, -1,
                            68, 59, 60, -1, 68, 67, 59, -1,
                            69, 60, 61, -1, 69, 68, 60, -1,
                            70, 61, 62, -1, 70, 69, 61, -1,
                            71, 62, 63, -1, 71, 70, 62, -1,
                            65, 63, 64, -1, 65, 71, 63, -1,
                            72, 75, 73, -1, 73, 75, 74, -1,
                            86, 76, 77, -1, 86, 77, 78, -1,
                            87, 78, 79, -1, 87, 86, 78, -1,
                            88, 79, 80, -1, 88, 87, 79, -1,
                            89, 80, 81, -1, 89, 88, 80, -1,
                            90, 81, 82, -1, 90, 89, 81, -1,
                            91, 82, 83, -1, 91, 90, 82, -1,
                            85, 83, 84, -1, 85, 91, 83, -1,
                            92, 95, 93, -1, 93, 95, 94, -1,
                            106, 104, 105, -1, 97, 98, 99, -1,
                            97, 99, 100, -1, 97, 100, 101, -1,
                            107, 103, 104, -1, 107, 104, 106, -1,
                            108, 102, 103, -1, 108, 103, 107, -1,
                            109, 101, 102, -1, 109, 102, 108, -1,
                            110, 97, 101, -1, 110, 101, 109, -1,
                            114, 110, 111, -1, 114, 111, 112, -1,
                            114, 112, 113, -1, 114, 97, 110, -1,
                            130, 131, 96, -1, 129, 130, 96, -1,
                            128, 129, 96, -1, 115, 96, 97, -1,
                            115, 97, 114, -1, 115, 128, 96, -1,
                            119, 127, 128, -1, 119, 128, 115, -1,
                            120, 126, 127, -1, 120, 127, 119, -1,
                            118, 119, 115, -1, 121, 125, 126, -1,
                            121, 126, 120, -1, 117, 118, 115, -1,
                            122, 124, 125, -1, 122, 125, 121, -1,
                            123, 124, 122, -1, 116, 117, 115, -1,
                            140, 142, 141, -1, 134, 133, 135, -1,
                            135, 133, 136, -1, 136, 133, 137, -1,
                            139, 143, 140, -1, 140, 143, 142, -1,
                            138, 144, 139, -1, 139, 144, 143, -1,
                            137, 145, 138, -1, 138, 145, 144, -1,
                            133, 146, 137, -1, 137, 146, 145, -1,
                            146, 150, 147, -1, 147, 150, 148, -1,
                            148, 150, 149, -1, 133, 150, 146, -1,
                            167, 166, 132, -1, 166, 165, 132, -1,
                            165, 164, 132, -1, 132, 151, 133, -1,
                            133, 151, 150, -1, 164, 151, 132, -1,
                            163, 155, 164, -1, 164, 155, 151, -1,
                            162, 156, 163, -1, 163, 156, 155, -1,
                            155, 154, 151, -1, 161, 157, 162, -1,
                            162, 157, 156, -1, 154, 153, 151, -1,
                            160, 158, 161, -1, 161, 158, 157, -1,
                            160, 159, 158, -1, 153, 152, 151, -1 ]
                        ccw TRUE
                        solid FALSE
                        convex TRUE
                        creaseAngle 0

                      }

                    }

                }

            }

        } ]

    }

}
