(kicad_symbol_lib (version 20211014) (generator kicad_symbol_editor)
  (symbol "FFC_25_0P5_ESP32CAM" (in_bom yes) (on_board yes)
    (property "Reference" "J" (id 0) (at 6.35 1.27 0)
      (effects (font (size 1.27 1.27)))
    )
    (property "Value" "FFC_25_0P5_ESP32CAM" (id 1) (at 6.35 -64.77 0)
      (effects (font (size 1.27 1.27)))
    )
    (property "Footprint" "" (id 2) (at 0 0 0)
      (effects (font (size 1.27 1.27)) hide)
    )
    (property "Datasheet" "" (id 3) (at 0 0 0)
      (effects (font (size 1.27 1.27)) hide)
    )
    (symbol "FFC_25_0P5_ESP32CAM_0_0"
      (pin input line (at 20.32 -2.54 180) (length 5.08)
        (name "STROBE" (effects (font (size 1.27 1.27))))
        (number "1" (effects (font (size 1.27 1.27))))
      )
      (pin power_in line (at 20.32 -25.4 180) (length 5.08)
        (name "DVDD" (effects (font (size 1.27 1.27))))
        (number "10" (effects (font (size 1.27 1.27))))
      )
      (pin power_in line (at 20.32 -27.94 180) (length 5.08)
        (name "D0VDD" (effects (font (size 1.27 1.27))))
        (number "11" (effects (font (size 1.27 1.27))))
      )
      (pin output line (at 20.32 -30.48 180) (length 5.08)
        (name "Y9" (effects (font (size 1.27 1.27))))
        (number "12" (effects (font (size 1.27 1.27))))
      )
      (pin input line (at 20.32 -33.02 180) (length 5.08)
        (name "MCLK" (effects (font (size 1.27 1.27))))
        (number "13" (effects (font (size 1.27 1.27))))
      )
      (pin output line (at 20.32 -35.56 180) (length 5.08)
        (name "Y8" (effects (font (size 1.27 1.27))))
        (number "14" (effects (font (size 1.27 1.27))))
      )
      (pin power_in line (at 20.32 -38.1 180) (length 5.08)
        (name "DGND" (effects (font (size 1.27 1.27))))
        (number "15" (effects (font (size 1.27 1.27))))
      )
      (pin output line (at 20.32 -40.64 180) (length 5.08)
        (name "Y7" (effects (font (size 1.27 1.27))))
        (number "16" (effects (font (size 1.27 1.27))))
      )
      (pin input line (at 20.32 -43.18 180) (length 5.08)
        (name "PCLK" (effects (font (size 1.27 1.27))))
        (number "17" (effects (font (size 1.27 1.27))))
      )
      (pin output line (at 20.32 -45.72 180) (length 5.08)
        (name "Y6" (effects (font (size 1.27 1.27))))
        (number "18" (effects (font (size 1.27 1.27))))
      )
      (pin output line (at 20.32 -48.26 180) (length 5.08)
        (name "Y2" (effects (font (size 1.27 1.27))))
        (number "19" (effects (font (size 1.27 1.27))))
      )
      (pin power_in line (at 20.32 -5.08 180) (length 5.08)
        (name "AGND" (effects (font (size 1.27 1.27))))
        (number "2" (effects (font (size 1.27 1.27))))
      )
      (pin output line (at 20.32 -50.8 180) (length 5.08)
        (name "Y5" (effects (font (size 1.27 1.27))))
        (number "20" (effects (font (size 1.27 1.27))))
      )
      (pin output line (at 20.32 -53.34 180) (length 5.08)
        (name "Y3" (effects (font (size 1.27 1.27))))
        (number "21" (effects (font (size 1.27 1.27))))
      )
      (pin output line (at 20.32 -55.88 180) (length 5.08)
        (name "Y4" (effects (font (size 1.27 1.27))))
        (number "22" (effects (font (size 1.27 1.27))))
      )
      (pin output line (at 20.32 -58.42 180) (length 5.08)
        (name "Y1" (effects (font (size 1.27 1.27))))
        (number "23" (effects (font (size 1.27 1.27))))
      )
      (pin output line (at 20.32 -60.96 180) (length 5.08)
        (name "Y0" (effects (font (size 1.27 1.27))))
        (number "24" (effects (font (size 1.27 1.27))))
      )
      (pin bidirectional line (at 20.32 -7.62 180) (length 5.08)
        (name "SIO_D" (effects (font (size 1.27 1.27))))
        (number "3" (effects (font (size 1.27 1.27))))
      )
      (pin power_in line (at 20.32 -10.16 180) (length 5.08)
        (name "AVDD" (effects (font (size 1.27 1.27))))
        (number "4" (effects (font (size 1.27 1.27))))
      )
      (pin input line (at 20.32 -12.7 180) (length 5.08)
        (name "SIO_C" (effects (font (size 1.27 1.27))))
        (number "5" (effects (font (size 1.27 1.27))))
      )
      (pin input line (at 20.32 -15.24 180) (length 5.08)
        (name "RESET" (effects (font (size 1.27 1.27))))
        (number "6" (effects (font (size 1.27 1.27))))
      )
      (pin output line (at 20.32 -17.78 180) (length 5.08)
        (name "VSYNC" (effects (font (size 1.27 1.27))))
        (number "7" (effects (font (size 1.27 1.27))))
      )
      (pin input line (at 20.32 -20.32 180) (length 5.08)
        (name "PWDN" (effects (font (size 1.27 1.27))))
        (number "8" (effects (font (size 1.27 1.27))))
      )
      (pin output line (at 20.32 -22.86 180) (length 5.08)
        (name "HREF" (effects (font (size 1.27 1.27))))
        (number "9" (effects (font (size 1.27 1.27))))
      )
      (pin no_connect line (at -5.08 -2.54 0) (length 5.08)
        (name "MP1" (effects (font (size 1.27 1.27))))
        (number "MP1" (effects (font (size 1.27 1.27))))
      )
      (pin no_connect line (at -5.08 -5.08 0) (length 5.08)
        (name "MP2" (effects (font (size 1.27 1.27))))
        (number "MP2" (effects (font (size 1.27 1.27))))
      )
    )
    (symbol "FFC_25_0P5_ESP32CAM_0_1"
      (polyline
        (pts
          (xy 0 0)
          (xy 15.24 0)
          (xy 15.24 -63.5)
          (xy 0 -63.5)
          (xy 0 0)
        )
        (stroke (width 0.1524) (type default) (color 0 0 0 0))
        (fill (type none))
      )
    )
  )
  (symbol "FFC_25_0P5_Standard" (in_bom yes) (on_board yes)
    (property "Reference" "J" (id 0) (at 6.35 1.27 0)
      (effects (font (size 1.27 1.27)))
    )
    (property "Value" "FFC_25_0P5_Standard" (id 1) (at 7.62 -64.77 0)
      (effects (font (size 1.27 1.27)))
    )
    (property "Footprint" "" (id 2) (at 0 0 0)
      (effects (font (size 1.27 1.27)) hide)
    )
    (property "Datasheet" "" (id 3) (at 0 0 0)
      (effects (font (size 1.27 1.27)) hide)
    )
    (symbol "FFC_25_0P5_Standard_0_0"
      (pin input line (at 20.32 -2.54 180) (length 5.08)
        (name "STROBE" (effects (font (size 1.27 1.27))))
        (number "1" (effects (font (size 1.27 1.27))))
      )
      (pin power_in line (at 20.32 -25.4 180) (length 5.08)
        (name "DVDD" (effects (font (size 1.27 1.27))))
        (number "10" (effects (font (size 1.27 1.27))))
      )
      (pin power_in line (at 20.32 -27.94 180) (length 5.08)
        (name "D0VDD" (effects (font (size 1.27 1.27))))
        (number "11" (effects (font (size 1.27 1.27))))
      )
      (pin output line (at 20.32 -30.48 180) (length 5.08)
        (name "D9/MDP1" (effects (font (size 1.27 1.27))))
        (number "12" (effects (font (size 1.27 1.27))))
      )
      (pin input line (at 20.32 -33.02 180) (length 5.08)
        (name "MCLK" (effects (font (size 1.27 1.27))))
        (number "13" (effects (font (size 1.27 1.27))))
      )
      (pin output line (at 20.32 -35.56 180) (length 5.08)
        (name "D8/MDN1" (effects (font (size 1.27 1.27))))
        (number "14" (effects (font (size 1.27 1.27))))
      )
      (pin power_in line (at 20.32 -38.1 180) (length 5.08)
        (name "GND" (effects (font (size 1.27 1.27))))
        (number "15" (effects (font (size 1.27 1.27))))
      )
      (pin output line (at 20.32 -40.64 180) (length 5.08)
        (name "D7/MCP" (effects (font (size 1.27 1.27))))
        (number "16" (effects (font (size 1.27 1.27))))
      )
      (pin input line (at 20.32 -43.18 180) (length 5.08)
        (name "PCLK" (effects (font (size 1.27 1.27))))
        (number "17" (effects (font (size 1.27 1.27))))
      )
      (pin output line (at 20.32 -45.72 180) (length 5.08)
        (name "D6/MCN" (effects (font (size 1.27 1.27))))
        (number "18" (effects (font (size 1.27 1.27))))
      )
      (pin output line (at 20.32 -48.26 180) (length 5.08)
        (name "D2" (effects (font (size 1.27 1.27))))
        (number "19" (effects (font (size 1.27 1.27))))
      )
      (pin power_in line (at 20.32 -5.08 180) (length 5.08)
        (name "AGND" (effects (font (size 1.27 1.27))))
        (number "2" (effects (font (size 1.27 1.27))))
      )
      (pin output line (at 20.32 -50.8 180) (length 5.08)
        (name "D5/MDP0" (effects (font (size 1.27 1.27))))
        (number "20" (effects (font (size 1.27 1.27))))
      )
      (pin output line (at 20.32 -53.34 180) (length 5.08)
        (name "D3" (effects (font (size 1.27 1.27))))
        (number "21" (effects (font (size 1.27 1.27))))
      )
      (pin output line (at 20.32 -55.88 180) (length 5.08)
        (name "D4/MDN0" (effects (font (size 1.27 1.27))))
        (number "22" (effects (font (size 1.27 1.27))))
      )
      (pin power_in line (at 20.32 -58.42 180) (length 5.08)
        (name "AF-VCC" (effects (font (size 1.27 1.27))))
        (number "23" (effects (font (size 1.27 1.27))))
      )
      (pin power_in line (at 20.32 -60.96 180) (length 5.08)
        (name "AF-GND" (effects (font (size 1.27 1.27))))
        (number "24" (effects (font (size 1.27 1.27))))
      )
      (pin bidirectional line (at 20.32 -7.62 180) (length 5.08)
        (name "SDA" (effects (font (size 1.27 1.27))))
        (number "3" (effects (font (size 1.27 1.27))))
      )
      (pin power_in line (at 20.32 -10.16 180) (length 5.08)
        (name "AVDD" (effects (font (size 1.27 1.27))))
        (number "4" (effects (font (size 1.27 1.27))))
      )
      (pin input line (at 20.32 -12.7 180) (length 5.08)
        (name "SCL" (effects (font (size 1.27 1.27))))
        (number "5" (effects (font (size 1.27 1.27))))
      )
      (pin input line (at 20.32 -15.24 180) (length 5.08)
        (name "RESET" (effects (font (size 1.27 1.27))))
        (number "6" (effects (font (size 1.27 1.27))))
      )
      (pin output line (at 20.32 -17.78 180) (length 5.08)
        (name "VSYNC" (effects (font (size 1.27 1.27))))
        (number "7" (effects (font (size 1.27 1.27))))
      )
      (pin input line (at 20.32 -20.32 180) (length 5.08)
        (name "PWDN" (effects (font (size 1.27 1.27))))
        (number "8" (effects (font (size 1.27 1.27))))
      )
      (pin output line (at 20.32 -22.86 180) (length 5.08)
        (name "HREF" (effects (font (size 1.27 1.27))))
        (number "9" (effects (font (size 1.27 1.27))))
      )
      (pin no_connect line (at -5.08 -2.54 0) (length 5.08)
        (name "MP1" (effects (font (size 1.27 1.27))))
        (number "MP1" (effects (font (size 1.27 1.27))))
      )
      (pin no_connect line (at -5.08 -5.08 0) (length 5.08)
        (name "MP2" (effects (font (size 1.27 1.27))))
        (number "MP2" (effects (font (size 1.27 1.27))))
      )
    )
    (symbol "FFC_25_0P5_Standard_0_1"
      (polyline
        (pts
          (xy 0 0)
          (xy 15.24 0)
          (xy 15.24 -63.5)
          (xy 0 -63.5)
          (xy 0 0)
        )
        (stroke (width 0.1524) (type default) (color 0 0 0 0))
        (fill (type none))
      )
    )
  )
)
